^C:\USERS\MOULD\DOCUMENTS\VISUAL STUDIO 2017\DX11FUN\DX11CONSOLEFUN\DX11CONSOLEFUN\CAMERA.CPP|C:\USERS\MOULD\DOCUMENTS\VISUAL STUDIO 2017\DX11FUN\DX11CONSOLEFUN\DX11CONSOLEFUN\D3D11WRAPPER.CPP|C:\USERS\MOULD\DOCUMENTS\VISUAL STUDIO 2017\DX11FUN\DX11CONSOLEFUN\DX11CONSOLEFUN\D3DCLASS.CPP|C:\USERS\MOULD\DOCUMENTS\VISUAL STUDIO 2017\DX11FUN\DX11CONSOLEFUN\DX11CONSOLEFUN\DX11CONSOLEFUN.CPP|C:\USERS\MOULD\DOCUMENTS\VISUAL STUDIO 2017\DX11FUN\DX11CONSOLEFUN\DX11CONSOLEFUN\SHADER.CPP|C:\USERS\MOULD\DOCUMENTS\VISUAL STUDIO 2017\DX11FUN\DX11CONSOLEFUN\DX11CONSOLEFUN\WINDOW.CPP
C:\USERS\MOULD\DOCUMENTS\VISUAL STUDIO 2017\DX11FUN\DX11CONSOLEFUN\DX11CONSOLEFUN\X64\DEBUG\VC141.PDB
C:\USERS\MOULD\DOCUMENTS\VISUAL STUDIO 2017\DX11FUN\DX11CONSOLEFUN\DX11CONSOLEFUN\X64\DEBUG\VC141.IDB
C:\USERS\MOULD\DOCUMENTS\VISUAL STUDIO 2017\DX11FUN\DX11CONSOLEFUN\DX11CONSOLEFUN\X64\DEBUG\WINDOW.OBJ
C:\USERS\MOULD\DOCUMENTS\VISUAL STUDIO 2017\DX11FUN\DX11CONSOLEFUN\DX11CONSOLEFUN\X64\DEBUG\SHADER.OBJ
C:\USERS\MOULD\DOCUMENTS\VISUAL STUDIO 2017\DX11FUN\DX11CONSOLEFUN\DX11CONSOLEFUN\X64\DEBUG\DX11CONSOLEFUN.OBJ
C:\USERS\MOULD\DOCUMENTS\VISUAL STUDIO 2017\DX11FUN\DX11CONSOLEFUN\DX11CONSOLEFUN\X64\DEBUG\D3DCLASS.OBJ
C:\USERS\MOULD\DOCUMENTS\VISUAL STUDIO 2017\DX11FUN\DX11CONSOLEFUN\DX11CONSOLEFUN\X64\DEBUG\D3D11WRAPPER.OBJ
C:\USERS\MOULD\DOCUMENTS\VISUAL STUDIO 2017\DX11FUN\DX11CONSOLEFUN\DX11CONSOLEFUN\X64\DEBUG\CAMERA.OBJ
^C:\USERS\MOULD\DOCUMENTS\VISUAL STUDIO 2017\DX11FUN\DX11CONSOLEFUN\DX11CONSOLEFUN\CAMERA.CPP
C:\USERS\MOULD\DOCUMENTS\VISUAL STUDIO 2017\DX11FUN\DX11CONSOLEFUN\DX11CONSOLEFUN\X64\DEBUG\VC141.PDB
^C:\USERS\MOULD\DOCUMENTS\VISUAL STUDIO 2017\DX11FUN\DX11CONSOLEFUN\DX11CONSOLEFUN\D3D11WRAPPER.CPP
C:\USERS\MOULD\DOCUMENTS\VISUAL STUDIO 2017\DX11FUN\DX11CONSOLEFUN\DX11CONSOLEFUN\X64\DEBUG\VC141.PDB
^C:\USERS\MOULD\DOCUMENTS\VISUAL STUDIO 2017\DX11FUN\DX11CONSOLEFUN\DX11CONSOLEFUN\SHADER.CPP
C:\USERS\MOULD\DOCUMENTS\VISUAL STUDIO 2017\DX11FUN\DX11CONSOLEFUN\DX11CONSOLEFUN\X64\DEBUG\VC141.PDB
^C:\USERS\MOULD\DOCUMENTS\VISUAL STUDIO 2017\DX11FUN\DX11CONSOLEFUN\DX11CONSOLEFUN\WINDOW.CPP
C:\USERS\MOULD\DOCUMENTS\VISUAL STUDIO 2017\DX11FUN\DX11CONSOLEFUN\DX11CONSOLEFUN\X64\DEBUG\VC141.PDB
^C:\USERS\MOULD\DOCUMENTS\VISUAL STUDIO 2017\DX11FUN\DX11CONSOLEFUN\DX11CONSOLEFUN\D3DCLASS.CPP|C:\USERS\MOULD\DOCUMENTS\VISUAL STUDIO 2017\DX11FUN\DX11CONSOLEFUN\DX11CONSOLEFUN\DX11CONSOLEFUN.CPP
C:\USERS\MOULD\DOCUMENTS\VISUAL STUDIO 2017\DX11FUN\DX11CONSOLEFUN\DX11CONSOLEFUN\X64\DEBUG\VC141.PDB
C:\USERS\MOULD\DOCUMENTS\VISUAL STUDIO 2017\DX11FUN\DX11CONSOLEFUN\DX11CONSOLEFUN\X64\DEBUG\VC141.IDB
C:\USERS\MOULD\DOCUMENTS\VISUAL STUDIO 2017\DX11FUN\DX11CONSOLEFUN\DX11CONSOLEFUN\X64\DEBUG\DX11CONSOLEFUN.OBJ
C:\USERS\MOULD\DOCUMENTS\VISUAL STUDIO 2017\DX11FUN\DX11CONSOLEFUN\DX11CONSOLEFUN\X64\DEBUG\D3DCLASS.OBJ
^C:\USERS\MOULD\DOCUMENTS\VISUAL STUDIO 2017\DX11FUN\DX11CONSOLEFUN\DX11CONSOLEFUN\D3DCLASS.CPP
C:\USERS\MOULD\DOCUMENTS\VISUAL STUDIO 2017\DX11FUN\DX11CONSOLEFUN\DX11CONSOLEFUN\X64\DEBUG\VC141.PDB
^C:\USERS\MOULD\DOCUMENTS\VISUAL STUDIO 2017\DX11FUN\DX11CONSOLEFUN\DX11CONSOLEFUN\DX11CONSOLEFUN.CPP
C:\USERS\MOULD\DOCUMENTS\VISUAL STUDIO 2017\DX11FUN\DX11CONSOLEFUN\DX11CONSOLEFUN\X64\DEBUG\VC141.PDB
